Projeto K-Means Pokemon
…
pokemon

## # A tibble: 800 x 6
##    Attack Defense `Sp. Atk` `Sp. Def` Speed Generation
##     <dbl>   <dbl>     <dbl>     <dbl> <dbl>      <dbl>
##  1     49      49        65        65    45          1
##  2     62      63        80        80    60          1
##  3     82      83       100       100    80          1
##  4    100     123       122       120    80          1
##  5     52      43        60        50    65          1
##  6     64      58        80        65    80          1
##  7     84      78       109        85   100          1
##  8    130     111       130        85   100          1
##  9    104      78       159       115   100          1
## 10     48      65        50        64    43          1
## # ... with 790 more rows
…
